^D:\SAXION\PROJECT3RDPERSON\REPOSITORY\C++_LINK_PROJECT\LUAC++LINKPROJECT\LUAC++LINKPROJECT\STDAFX.CPP
D:\SAXION\PROJECT3RDPERSON\REPOSITORY\C++_LINK_PROJECT\LUAC++LINKPROJECT\LUAC++LINKPROJECT\X64\DEBUG\LUAC++LINKPROJECT.PCH
D:\SAXION\PROJECT3RDPERSON\REPOSITORY\C++_LINK_PROJECT\LUAC++LINKPROJECT\LUAC++LINKPROJECT\X64\DEBUG\VC140.PDB
D:\SAXION\PROJECT3RDPERSON\REPOSITORY\C++_LINK_PROJECT\LUAC++LINKPROJECT\LUAC++LINKPROJECT\X64\DEBUG\VC140.IDB
D:\SAXION\PROJECT3RDPERSON\REPOSITORY\C++_LINK_PROJECT\LUAC++LINKPROJECT\LUAC++LINKPROJECT\X64\DEBUG\STDAFX.OBJ
^D:\SAXION\PROJECT3RDPERSON\REPOSITORY\C++_LINK_PROJECT\LUAC++LINKPROJECT\LUAC++LINKPROJECT\ACTIONCOMPONENT.CPP|D:\SAXION\PROJECT3RDPERSON\REPOSITORY\C++_LINK_PROJECT\LUAC++LINKPROJECT\LUAC++LINKPROJECT\BASICMOVEMENTCOMPONENT.CPP|D:\SAXION\PROJECT3RDPERSON\REPOSITORY\C++_LINK_PROJECT\LUAC++LINKPROJECT\LUAC++LINKPROJECT\COMPONENT.CPP|D:\SAXION\PROJECT3RDPERSON\REPOSITORY\C++_LINK_PROJECT\LUAC++LINKPROJECT\LUAC++LINKPROJECT\FOLLOWCOMPONENT.CPP|D:\SAXION\PROJECT3RDPERSON\REPOSITORY\C++_LINK_PROJECT\LUAC++LINKPROJECT\LUAC++LINKPROJECT\GAMEOBJECT.CPP|D:\SAXION\PROJECT3RDPERSON\REPOSITORY\C++_LINK_PROJECT\LUAC++LINKPROJECT\LUAC++LINKPROJECT\GRAPHICS.CPP|D:\SAXION\PROJECT3RDPERSON\REPOSITORY\C++_LINK_PROJECT\LUAC++LINKPROJECT\LUAC++LINKPROJECT\GRAPHICSCOMPONENT.CPP|D:\SAXION\PROJECT3RDPERSON\REPOSITORY\C++_LINK_PROJECT\LUAC++LINKPROJECT\LUAC++LINKPROJECT\KEYCOMPONENT.CPP|D:\SAXION\PROJECT3RDPERSON\REPOSITORY\C++_LINK_PROJECT\LUAC++LINKPROJECT\LUAC++LINKPROJECT\KEYHANDLER.CPP|D:\SAXION\PROJECT3RDPERSON\REPOSITORY\C++_LINK_PROJECT\LUAC++LINKPROJECT\LUAC++LINKPROJECT\LINESEGMENT.CPP|D:\SAXION\PROJECT3RDPERSON\REPOSITORY\C++_LINK_PROJECT\LUAC++LINKPROJECT\LUAC++LINKPROJECT\LUAC++LINKPROJECT.CPP|D:\SAXION\PROJECT3RDPERSON\REPOSITORY\C++_LINK_PROJECT\LUAC++LINKPROJECT\LUAC++LINKPROJECT\NEWGAME.CPP|D:\SAXION\PROJECT3RDPERSON\REPOSITORY\C++_LINK_PROJECT\LUAC++LINKPROJECT\LUAC++LINKPROJECT\PHYSICSMANAGER.CPP|D:\SAXION\PROJECT3RDPERSON\REPOSITORY\C++_LINK_PROJECT\LUAC++LINKPROJECT\LUAC++LINKPROJECT\SCRIPT.CPP|D:\SAXION\PROJECT3RDPERSON\REPOSITORY\C++_LINK_PROJECT\LUAC++LINKPROJECT\LUAC++LINKPROJECT\SCRIPTCOMPONENT.CPP
D:\SAXION\PROJECT3RDPERSON\REPOSITORY\C++_LINK_PROJECT\LUAC++LINKPROJECT\LUAC++LINKPROJECT\X64\DEBUG\VC140.PDB
D:\SAXION\PROJECT3RDPERSON\REPOSITORY\C++_LINK_PROJECT\LUAC++LINKPROJECT\LUAC++LINKPROJECT\X64\DEBUG\VC140.IDB
D:\SAXION\PROJECT3RDPERSON\REPOSITORY\C++_LINK_PROJECT\LUAC++LINKPROJECT\LUAC++LINKPROJECT\X64\DEBUG\ACTIONCOMPONENT.OBJ
D:\SAXION\PROJECT3RDPERSON\REPOSITORY\C++_LINK_PROJECT\LUAC++LINKPROJECT\LUAC++LINKPROJECT\X64\DEBUG\BASICMOVEMENTCOMPONENT.OBJ
D:\SAXION\PROJECT3RDPERSON\REPOSITORY\C++_LINK_PROJECT\LUAC++LINKPROJECT\LUAC++LINKPROJECT\X64\DEBUG\COMPONENT.OBJ
D:\SAXION\PROJECT3RDPERSON\REPOSITORY\C++_LINK_PROJECT\LUAC++LINKPROJECT\LUAC++LINKPROJECT\X64\DEBUG\FOLLOWCOMPONENT.OBJ
D:\SAXION\PROJECT3RDPERSON\REPOSITORY\C++_LINK_PROJECT\LUAC++LINKPROJECT\LUAC++LINKPROJECT\X64\DEBUG\GAMEOBJECT.OBJ
D:\SAXION\PROJECT3RDPERSON\REPOSITORY\C++_LINK_PROJECT\LUAC++LINKPROJECT\LUAC++LINKPROJECT\X64\DEBUG\GRAPHICS.OBJ
D:\SAXION\PROJECT3RDPERSON\REPOSITORY\C++_LINK_PROJECT\LUAC++LINKPROJECT\LUAC++LINKPROJECT\X64\DEBUG\GRAPHICSCOMPONENT.OBJ
D:\SAXION\PROJECT3RDPERSON\REPOSITORY\C++_LINK_PROJECT\LUAC++LINKPROJECT\LUAC++LINKPROJECT\X64\DEBUG\KEYCOMPONENT.OBJ
D:\SAXION\PROJECT3RDPERSON\REPOSITORY\C++_LINK_PROJECT\LUAC++LINKPROJECT\LUAC++LINKPROJECT\X64\DEBUG\KEYHANDLER.OBJ
D:\SAXION\PROJECT3RDPERSON\REPOSITORY\C++_LINK_PROJECT\LUAC++LINKPROJECT\LUAC++LINKPROJECT\X64\DEBUG\LINESEGMENT.OBJ
D:\SAXION\PROJECT3RDPERSON\REPOSITORY\C++_LINK_PROJECT\LUAC++LINKPROJECT\LUAC++LINKPROJECT\X64\DEBUG\LUAC++LINKPROJECT.OBJ
D:\SAXION\PROJECT3RDPERSON\REPOSITORY\C++_LINK_PROJECT\LUAC++LINKPROJECT\LUAC++LINKPROJECT\X64\DEBUG\NEWGAME.OBJ
D:\SAXION\PROJECT3RDPERSON\REPOSITORY\C++_LINK_PROJECT\LUAC++LINKPROJECT\LUAC++LINKPROJECT\X64\DEBUG\PHYSICSMANAGER.OBJ
D:\SAXION\PROJECT3RDPERSON\REPOSITORY\C++_LINK_PROJECT\LUAC++LINKPROJECT\LUAC++LINKPROJECT\X64\DEBUG\SCRIPT.OBJ
D:\SAXION\PROJECT3RDPERSON\REPOSITORY\C++_LINK_PROJECT\LUAC++LINKPROJECT\LUAC++LINKPROJECT\X64\DEBUG\SCRIPTCOMPONENT.OBJ
^D:\SAXION\PROJECT3RDPERSON\REPOSITORY\C++_LINK_PROJECT\LUAC++LINKPROJECT\LUAC++LINKPROJECT\ACTIONCOMPONENT.CPP
D:\SAXION\PROJECT3RDPERSON\REPOSITORY\C++_LINK_PROJECT\LUAC++LINKPROJECT\LUAC++LINKPROJECT\X64\DEBUG\VC140.PDB
^D:\SAXION\PROJECT3RDPERSON\REPOSITORY\C++_LINK_PROJECT\LUAC++LINKPROJECT\LUAC++LINKPROJECT\BASICMOVEMENTCOMPONENT.CPP
D:\SAXION\PROJECT3RDPERSON\REPOSITORY\C++_LINK_PROJECT\LUAC++LINKPROJECT\LUAC++LINKPROJECT\X64\DEBUG\VC140.PDB
^D:\SAXION\PROJECT3RDPERSON\REPOSITORY\C++_LINK_PROJECT\LUAC++LINKPROJECT\LUAC++LINKPROJECT\COMPONENT.CPP
D:\SAXION\PROJECT3RDPERSON\REPOSITORY\C++_LINK_PROJECT\LUAC++LINKPROJECT\LUAC++LINKPROJECT\X64\DEBUG\VC140.PDB
^D:\SAXION\PROJECT3RDPERSON\REPOSITORY\C++_LINK_PROJECT\LUAC++LINKPROJECT\LUAC++LINKPROJECT\FOLLOWCOMPONENT.CPP
D:\SAXION\PROJECT3RDPERSON\REPOSITORY\C++_LINK_PROJECT\LUAC++LINKPROJECT\LUAC++LINKPROJECT\X64\DEBUG\VC140.PDB
^D:\SAXION\PROJECT3RDPERSON\REPOSITORY\C++_LINK_PROJECT\LUAC++LINKPROJECT\LUAC++LINKPROJECT\GAMEOBJECT.CPP
D:\SAXION\PROJECT3RDPERSON\REPOSITORY\C++_LINK_PROJECT\LUAC++LINKPROJECT\LUAC++LINKPROJECT\X64\DEBUG\VC140.PDB
^D:\SAXION\PROJECT3RDPERSON\REPOSITORY\C++_LINK_PROJECT\LUAC++LINKPROJECT\LUAC++LINKPROJECT\GRAPHICS.CPP
D:\SAXION\PROJECT3RDPERSON\REPOSITORY\C++_LINK_PROJECT\LUAC++LINKPROJECT\LUAC++LINKPROJECT\X64\DEBUG\VC140.PDB
^D:\SAXION\PROJECT3RDPERSON\REPOSITORY\C++_LINK_PROJECT\LUAC++LINKPROJECT\LUAC++LINKPROJECT\GRAPHICSCOMPONENT.CPP
D:\SAXION\PROJECT3RDPERSON\REPOSITORY\C++_LINK_PROJECT\LUAC++LINKPROJECT\LUAC++LINKPROJECT\X64\DEBUG\VC140.PDB
^D:\SAXION\PROJECT3RDPERSON\REPOSITORY\C++_LINK_PROJECT\LUAC++LINKPROJECT\LUAC++LINKPROJECT\KEYCOMPONENT.CPP
D:\SAXION\PROJECT3RDPERSON\REPOSITORY\C++_LINK_PROJECT\LUAC++LINKPROJECT\LUAC++LINKPROJECT\X64\DEBUG\VC140.PDB
^D:\SAXION\PROJECT3RDPERSON\REPOSITORY\C++_LINK_PROJECT\LUAC++LINKPROJECT\LUAC++LINKPROJECT\KEYHANDLER.CPP
D:\SAXION\PROJECT3RDPERSON\REPOSITORY\C++_LINK_PROJECT\LUAC++LINKPROJECT\LUAC++LINKPROJECT\X64\DEBUG\VC140.PDB
^D:\SAXION\PROJECT3RDPERSON\REPOSITORY\C++_LINK_PROJECT\LUAC++LINKPROJECT\LUAC++LINKPROJECT\LINESEGMENT.CPP
D:\SAXION\PROJECT3RDPERSON\REPOSITORY\C++_LINK_PROJECT\LUAC++LINKPROJECT\LUAC++LINKPROJECT\X64\DEBUG\VC140.PDB
^D:\SAXION\PROJECT3RDPERSON\REPOSITORY\C++_LINK_PROJECT\LUAC++LINKPROJECT\LUAC++LINKPROJECT\LUAC++LINKPROJECT.CPP
D:\SAXION\PROJECT3RDPERSON\REPOSITORY\C++_LINK_PROJECT\LUAC++LINKPROJECT\LUAC++LINKPROJECT\X64\DEBUG\VC140.PDB
^D:\SAXION\PROJECT3RDPERSON\REPOSITORY\C++_LINK_PROJECT\LUAC++LINKPROJECT\LUAC++LINKPROJECT\NEWGAME.CPP
D:\SAXION\PROJECT3RDPERSON\REPOSITORY\C++_LINK_PROJECT\LUAC++LINKPROJECT\LUAC++LINKPROJECT\X64\DEBUG\VC140.PDB
^D:\SAXION\PROJECT3RDPERSON\REPOSITORY\C++_LINK_PROJECT\LUAC++LINKPROJECT\LUAC++LINKPROJECT\PHYSICSMANAGER.CPP
D:\SAXION\PROJECT3RDPERSON\REPOSITORY\C++_LINK_PROJECT\LUAC++LINKPROJECT\LUAC++LINKPROJECT\X64\DEBUG\VC140.PDB
^D:\SAXION\PROJECT3RDPERSON\REPOSITORY\C++_LINK_PROJECT\LUAC++LINKPROJECT\LUAC++LINKPROJECT\SCRIPT.CPP
D:\SAXION\PROJECT3RDPERSON\REPOSITORY\C++_LINK_PROJECT\LUAC++LINKPROJECT\LUAC++LINKPROJECT\X64\DEBUG\VC140.PDB
^D:\SAXION\PROJECT3RDPERSON\REPOSITORY\C++_LINK_PROJECT\LUAC++LINKPROJECT\LUAC++LINKPROJECT\SCRIPTCOMPONENT.CPP
D:\SAXION\PROJECT3RDPERSON\REPOSITORY\C++_LINK_PROJECT\LUAC++LINKPROJECT\LUAC++LINKPROJECT\X64\DEBUG\VC140.PDB
